#group,false,false,true,true,false,false,true,true,true,true
#datatype,string,long,dateTime:RFC3339,dateTime:RFC3339,dateTime:RFC3339,double,string,string,string,string
#default,mean,,,,,,,,,
,result,table,_start,_stop,_time,_value,_field,_measurement,cpu,host
,,0,2021-06-18T13:20:05.931Z,2021-06-18T13:51:05.931Z,2021-06-18T13:27:22.908Z,0.10070493454178744,usage_system,cpu,cpu-total,debianLT
,,0,2021-06-18T13:20:05.931Z,2021-06-18T13:51:05.931Z,2021-06-18T13:27:33.242Z,0,usage_system,cpu,cpu-total,debianLT
,,0,2021-06-18T13:20:05.931Z,2021-06-18T13:51:05.931Z,2021-06-18T13:27:43.576Z,0,usage_system,cpu,cpu-total,debianLT
,,0,2021-06-18T13:20:05.931Z,2021-06-18T13:51:05.931Z,2021-06-18T13:27:53.91Z,0.40404040404041025,usage_system,cpu,cpu-total,debianLT
,,0,2021-06-18T13:20:05.931Z,2021-06-18T13:51:05.931Z,2021-06-18T13:28:04.244Z,0.10101010101009329,usage_system,cpu,cpu-total,debianLT
,,0,2021-06-18T13:20:05.931Z,2021-06-18T13:51:05.931Z,2021-06-18T13:28:14.578Z,0,usage_system,cpu,cpu-total,debianLT
,,0,2021-06-18T13:20:05.931Z,2021-06-18T13:51:05.931Z,2021-06-18T13:28:24.912Z,0,usage_system,cpu,cpu-total,debianLT
,,0,2021-06-18T13:20:05.931Z,2021-06-18T13:51:05.931Z,2021-06-18T13:28:30.079Z,0,usage_system,cpu,cpu-total,debianLT
,,0,2021-06-18T13:20:05.931Z,2021-06-18T13:51:05.931Z,2021-06-18T13:28:40.413Z,0.10080645161290033,usage_system,cpu,cpu-total,debianLT
,,0,2021-06-18T13:20:05.931Z,2021-06-18T13:51:05.931Z,2021-06-18T13:28:50.747Z,0,usage_system,cpu,cpu-total,debianLT
,,0,2021-06-18T13:20:05.931Z,2021-06-18T13:51:05.931Z,2021-06-18T13:29:01.081Z,0.10080645161291825,usage_system,cpu,cpu-total,debianLT
,,0,2021-06-18T13:20:05.931Z,2021-06-18T13:51:05.931Z,2021-06-18T13:29:11.415Z,0.20181634712409718,usage_system,cpu,cpu-total,debianLT
,,0,2021-06-18T13:20:05.931Z,2021-06-18T13:51:05.931Z,2021-06-18T13:29:21.749Z,0.10080645161290033,usage_system,cpu,cpu-total,debianLT
,,0,2021-06-18T13:20:05.931Z,2021-06-18T13:51:05.931Z,2021-06-18T13:29:32.083Z,0,usage_system,cpu,cpu-total,debianLT
,,0,2021-06-18T13:20:05.931Z,2021-06-18T13:51:05.931Z,2021-06-18T13:29:42.417Z,0,usage_system,cpu,cpu-total,debianLT
,,0,2021-06-18T13:20:05.931Z,2021-06-18T13:51:05.931Z,2021-06-18T13:29:52.751Z,0.10080645161290033,usage_system,cpu,cpu-total,debianLT
,,0,2021-06-18T13:20:05.931Z,2021-06-18T13:51:05.931Z,2021-06-18T13:30:03.085Z,0,usage_system,cpu,cpu-total,debianLT
,,0,2021-06-18T13:20:05.931Z,2021-06-18T13:51:05.931Z,2021-06-18T13:30:13.419Z,0.10090817356205786,usage_system,cpu,cpu-total,debianLT
,,0,2021-06-18T13:20:05.931Z,2021-06-18T13:51:05.931Z,2021-06-18T13:30:23.753Z,0,usage_system,cpu,cpu-total,debianLT
,,0,2021-06-18T13:20:05.931Z,2021-06-18T13:51:05.931Z,2021-06-18T13:30:34.087Z,0,usage_system,cpu,cpu-total,debianLT
,,0,2021-06-18T13:20:05.931Z,2021-06-18T13:51:05.931Z,2021-06-18T13:30:44.421Z,0.10090817356204859,usage_system,cpu,cpu-total,debianLT
,,0,2021-06-18T13:20:05.931Z,2021-06-18T13:51:05.931Z,2021-06-18T13:30:54.755Z,0.20161290322580067,usage_system,cpu,cpu-total,debianLT
,,0,2021-06-18T13:20:05.931Z,2021-06-18T13:51:05.931Z,2021-06-18T13:31:05.089Z,0.10090817356207578,usage_system,cpu,cpu-total,debianLT
,,0,2021-06-18T13:20:05.931Z,2021-06-18T13:51:05.931Z,2021-06-18T13:31:10.256Z,0.20161290322580067,usage_system,cpu,cpu-total,debianLT
,,0,2021-06-18T13:20:05.931Z,2021-06-18T13:51:05.931Z,2021-06-18T13:31:20.59Z,0,usage_system,cpu,cpu-total,debianLT
,,0,2021-06-18T13:20:05.931Z,2021-06-18T13:51:05.931Z,2021-06-18T13:31:30.924Z,0,usage_system,cpu,cpu-total,debianLT
,,0,2021-06-18T13:20:05.931Z,2021-06-18T13:51:05.931Z,2021-06-18T13:31:41.258Z,0.20161290322578218,usage_system,cpu,cpu-total,debianLT
,,0,2021-06-18T13:20:05.931Z,2021-06-18T13:51:05.931Z,2021-06-18T13:31:51.592Z,0,usage_system,cpu,cpu-total,debianLT
,,0,2021-06-18T13:20:05.931Z,2021-06-18T13:51:05.931Z,2021-06-18T13:32:01.926Z,0,usage_system,cpu,cpu-total,debianLT
,,0,2021-06-18T13:20:05.931Z,2021-06-18T13:51:05.931Z,2021-06-18T13:32:12.26Z,0,usage_system,cpu,cpu-total,debianLT
,,0,2021-06-18T13:20:05.931Z,2021-06-18T13:51:05.931Z,2021-06-18T13:32:22.594Z,0.10080645161290033,usage_system,cpu,cpu-total,debianLT
,,0,2021-06-18T13:20:05.931Z,2021-06-18T13:51:05.931Z,2021-06-18T13:32:32.928Z,0,usage_system,cpu,cpu-total,debianLT
,,0,2021-06-18T13:20:05.931Z,2021-06-18T13:51:05.931Z,2021-06-18T13:32:43.262Z,0.10101010101009329,usage_system,cpu,cpu-total,debianLT
,,0,2021-06-18T13:20:05.931Z,2021-06-18T13:51:05.931Z,2021-06-18T13:32:53.596Z,0,usage_system,cpu,cpu-total,debianLT
,,0,2021-06-18T13:20:05.931Z,2021-06-18T13:51:05.931Z,2021-06-18T13:33:03.93Z,0.10080645161290033,usage_system,cpu,cpu-total,debianLT
,,0,2021-06-18T13:20:05.931Z,2021-06-18T13:51:05.931Z,2021-06-18T13:33:14.264Z,0,usage_system,cpu,cpu-total,debianLT
,,0,2021-06-18T13:20:05.931Z,2021-06-18T13:51:05.931Z,2021-06-18T13:33:24.598Z,0.10090817356207578,usage_system,cpu,cpu-total,debianLT

